%!PS-Adobe-3.0 EPSF-3.0
%%Creator: cairo 1.14.1 (http://cairographics.org)
%%CreationDate: Thu Sep 28 05:26:08 2017
%%Pages: 1
%%DocumentData: Clean7Bit
%%LanguageLevel: 2
%%BoundingBox: 31 31 225 225
%%EndComments
%%BeginProlog
save
50 dict begin
/q { gsave } bind def
/Q { grestore } bind def
/cm { 6 array astore concat } bind def
/w { setlinewidth } bind def
/J { setlinecap } bind def
/j { setlinejoin } bind def
/M { setmiterlimit } bind def
/d { setdash } bind def
/m { moveto } bind def
/l { lineto } bind def
/c { curveto } bind def
/h { closepath } bind def
/re { exch dup neg 3 1 roll 5 3 roll moveto 0 rlineto
      0 exch rlineto 0 rlineto closepath } bind def
/S { stroke } bind def
/f { fill } bind def
/f* { eofill } bind def
/n { newpath } bind def
/W { clip } bind def
/W* { eoclip } bind def
/BT { } bind def
/ET { } bind def
/pdfmark where { pop globaldict /?pdfmark /exec load put }
    { globaldict begin /?pdfmark /pop load def /pdfmark
    /cleartomark load def end } ifelse
/BDC { mark 3 1 roll /BDC pdfmark } bind def
/EMC { mark /EMC pdfmark } bind def
/cairo_store_point { /cairo_point_y exch def /cairo_point_x exch def } def
/Tj { show currentpoint cairo_store_point } bind def
/TJ {
  {
    dup
    type /stringtype eq
    { show } { -0.001 mul 0 cairo_font_matrix dtransform rmoveto } ifelse
  } forall
  currentpoint cairo_store_point
} bind def
/cairo_selectfont { cairo_font_matrix aload pop pop pop 0 0 6 array astore
    cairo_font exch selectfont cairo_point_x cairo_point_y moveto } bind def
/Tf { pop /cairo_font exch def /cairo_font_matrix where
      { pop cairo_selectfont } if } bind def
/Td { matrix translate cairo_font_matrix matrix concatmatrix dup
      /cairo_font_matrix exch def dup 4 get exch 5 get cairo_store_point
      /cairo_font where { pop cairo_selectfont } if } bind def
/Tm { 2 copy 8 2 roll 6 array astore /cairo_font_matrix exch def
      cairo_store_point /cairo_font where { pop cairo_selectfont } if } bind def
/g { setgray } bind def
/rg { setrgbcolor } bind def
/d1 { setcachedevice } bind def
%%EndProlog
%%BeginSetup
%%EndSetup
%%Page: 1 1
%%BeginPageSetup
%%PageBoundingBox: 31 31 225 225
%%EndPageSetup
q 31 31 194 194 rectclip q
0 g
31.031 224.969 m 38.789 224.969 l 38.789 217.211 l 31.031 217.211 l h
38.789 224.969 m 46.547 224.969 l 46.547 217.211 l 38.789 217.211 l h
46.547 224.969 m 54.305 224.969 l 54.305 217.211 l 46.547 217.211 l h
54.305 224.969 m 62.063 224.969 l 62.063 217.211 l 54.305 217.211 l h
62.063 224.969 m 69.816 224.969 l 69.816 217.211 l 62.063 217.211 l h
69.816 224.969 m 77.574 224.969 l 77.574 217.211 l 69.816 217.211 l h
77.574 224.969 m 85.332 224.969 l 85.332 217.211 l 77.574 217.211 l h
100.848 224.969 m 108.605 224.969 l 108.605 217.211 l 100.848 217.211 l
 h
108.605 224.969 m 116.363 224.969 l 116.363 217.211 l 108.605 217.211 l
 h
116.363 224.969 m 124.121 224.969 l 124.121 217.211 l 116.363 217.211 l
 h
131.879 224.969 m 139.637 224.969 l 139.637 217.211 l 131.879 217.211 l
 h
170.668 224.969 m 178.426 224.969 l 178.426 217.211 l 170.668 217.211 l
 h
178.426 224.969 m 186.184 224.969 l 186.184 217.211 l 178.426 217.211 l
 h
186.184 224.969 m 193.938 224.969 l 193.938 217.211 l 186.184 217.211 l
 h
193.938 224.969 m 201.695 224.969 l 201.695 217.211 l 193.938 217.211 l
 h
201.695 224.969 m 209.453 224.969 l 209.453 217.211 l 201.695 217.211 l
 h
209.453 224.969 m 217.211 224.969 l 217.211 217.211 l 209.453 217.211 l
 h
217.211 224.969 m 224.969 224.969 l 224.969 217.211 l 217.211 217.211 l
 h
31.031 217.211 m 38.789 217.211 l 38.789 209.453 l 31.031 209.453 l h
77.574 217.211 m 85.332 217.211 l 85.332 209.453 l 77.574 209.453 l h
108.605 217.211 m 116.363 217.211 l 116.363 209.453 l 108.605 209.453 l
 h
131.879 217.211 m 139.637 217.211 l 139.637 209.453 l 131.879 209.453 l
 h
139.637 217.211 m 147.395 217.211 l 147.395 209.453 l 139.637 209.453 l
 h
147.395 217.211 m 155.152 217.211 l 155.152 209.453 l 147.395 209.453 l
 h
155.152 217.211 m 162.91 217.211 l 162.91 209.453 l 155.152 209.453 l h
170.668 217.211 m 178.426 217.211 l 178.426 209.453 l 170.668 209.453 l
 h
217.211 217.211 m 224.969 217.211 l 224.969 209.453 l 217.211 209.453 l
 h
31.031 209.453 m 38.789 209.453 l 38.789 201.695 l 31.031 201.695 l h
46.547 209.453 m 54.305 209.453 l 54.305 201.695 l 46.547 201.695 l h
54.305 209.453 m 62.063 209.453 l 62.063 201.695 l 54.305 201.695 l h
62.063 209.453 m 69.816 209.453 l 69.816 201.695 l 62.063 201.695 l h
77.574 209.453 m 85.332 209.453 l 85.332 201.695 l 77.574 201.695 l h
93.09 209.453 m 100.848 209.453 l 100.848 201.695 l 93.09 201.695 l h
100.848 209.453 m 108.605 209.453 l 108.605 201.695 l 100.848 201.695 l
 h
108.605 209.453 m 116.363 209.453 l 116.363 201.695 l 108.605 201.695 l
 h
124.121 209.453 m 131.879 209.453 l 131.879 201.695 l 124.121 201.695 l
 h
147.395 209.453 m 155.152 209.453 l 155.152 201.695 l 147.395 201.695 l
 h
155.152 209.453 m 162.91 209.453 l 162.91 201.695 l 155.152 201.695 l h
170.668 209.453 m 178.426 209.453 l 178.426 201.695 l 170.668 201.695 l
 h
186.184 209.453 m 193.938 209.453 l 193.938 201.695 l 186.184 201.695 l
 h
193.938 209.453 m 201.695 209.453 l 201.695 201.695 l 193.938 201.695 l
 h
201.695 209.453 m 209.453 209.453 l 209.453 201.695 l 201.695 201.695 l
 h
217.211 209.453 m 224.969 209.453 l 224.969 201.695 l 217.211 201.695 l
 h
31.031 201.695 m 38.789 201.695 l 38.789 193.938 l 31.031 193.938 l h
46.547 201.695 m 54.305 201.695 l 54.305 193.938 l 46.547 193.938 l h
54.305 201.695 m 62.063 201.695 l 62.063 193.938 l 54.305 193.938 l h
62.063 201.695 m 69.816 201.695 l 69.816 193.938 l 62.063 193.938 l h
77.574 201.695 m 85.332 201.695 l 85.332 193.938 l 77.574 193.938 l h
93.09 201.695 m 100.848 201.695 l 100.848 193.938 l 93.09 193.938 l h
108.605 201.695 m 116.363 201.695 l 116.363 193.938 l 108.605 193.938 l
 h
131.879 201.695 m 139.637 201.695 l 139.637 193.938 l 131.879 193.938 l
 h
139.637 201.695 m 147.395 201.695 l 147.395 193.938 l 139.637 193.938 l
 h
147.395 201.695 m 155.152 201.695 l 155.152 193.938 l 147.395 193.938 l
 h
170.668 201.695 m 178.426 201.695 l 178.426 193.938 l 170.668 193.938 l
 h
186.184 201.695 m 193.938 201.695 l 193.938 193.938 l 186.184 193.938 l
 h
193.938 201.695 m 201.695 201.695 l 201.695 193.938 l 193.938 193.938 l
 h
201.695 201.695 m 209.453 201.695 l 209.453 193.938 l 201.695 193.938 l
 h
217.211 201.695 m 224.969 201.695 l 224.969 193.938 l 217.211 193.938 l
 h
31.031 193.938 m 38.789 193.938 l 38.789 186.184 l 31.031 186.184 l h
46.547 193.938 m 54.305 193.938 l 54.305 186.184 l 46.547 186.184 l h
54.305 193.938 m 62.063 193.938 l 62.063 186.184 l 54.305 186.184 l h
62.063 193.938 m 69.816 193.938 l 69.816 186.184 l 62.063 186.184 l h
77.574 193.938 m 85.332 193.938 l 85.332 186.184 l 77.574 186.184 l h
93.09 193.938 m 100.848 193.938 l 100.848 186.184 l 93.09 186.184 l h
100.848 193.938 m 108.605 193.938 l 108.605 186.184 l 100.848 186.184 l
 h
108.605 193.938 m 116.363 193.938 l 116.363 186.184 l 108.605 186.184 l
 h
155.152 193.938 m 162.91 193.938 l 162.91 186.184 l 155.152 186.184 l h
170.668 193.938 m 178.426 193.938 l 178.426 186.184 l 170.668 186.184 l
 h
186.184 193.938 m 193.938 193.938 l 193.938 186.184 l 186.184 186.184 l
 h
193.938 193.938 m 201.695 193.938 l 201.695 186.184 l 193.938 186.184 l
 h
201.695 193.938 m 209.453 193.938 l 209.453 186.184 l 201.695 186.184 l
 h
217.211 193.938 m 224.969 193.938 l 224.969 186.184 l 217.211 186.184 l
 h
31.031 186.184 m 38.789 186.184 l 38.789 178.426 l 31.031 178.426 l h
77.574 186.184 m 85.332 186.184 l 85.332 178.426 l 77.574 178.426 l h
93.09 186.184 m 100.848 186.184 l 100.848 178.426 l 93.09 178.426 l h
108.605 186.184 m 116.363 186.184 l 116.363 178.426 l 108.605 178.426 l
 h
124.121 186.184 m 131.879 186.184 l 131.879 178.426 l 124.121 178.426 l
 h
131.879 186.184 m 139.637 186.184 l 139.637 178.426 l 131.879 178.426 l
 h
147.395 186.184 m 155.152 186.184 l 155.152 178.426 l 147.395 178.426 l
 h
155.152 186.184 m 162.91 186.184 l 162.91 178.426 l 155.152 178.426 l h
170.668 186.184 m 178.426 186.184 l 178.426 178.426 l 170.668 178.426 l
 h
217.211 186.184 m 224.969 186.184 l 224.969 178.426 l 217.211 178.426 l
 h
31.031 178.426 m 38.789 178.426 l 38.789 170.668 l 31.031 170.668 l h
38.789 178.426 m 46.547 178.426 l 46.547 170.668 l 38.789 170.668 l h
46.547 178.426 m 54.305 178.426 l 54.305 170.668 l 46.547 170.668 l h
54.305 178.426 m 62.063 178.426 l 62.063 170.668 l 54.305 170.668 l h
62.063 178.426 m 69.816 178.426 l 69.816 170.668 l 62.063 170.668 l h
69.816 178.426 m 77.574 178.426 l 77.574 170.668 l 69.816 170.668 l h
77.574 178.426 m 85.332 178.426 l 85.332 170.668 l 77.574 170.668 l h
93.09 178.426 m 100.848 178.426 l 100.848 170.668 l 93.09 170.668 l h
108.605 178.426 m 116.363 178.426 l 116.363 170.668 l 108.605 170.668 l
 h
124.121 178.426 m 131.879 178.426 l 131.879 170.668 l 124.121 170.668 l
 h
139.637 178.426 m 147.395 178.426 l 147.395 170.668 l 139.637 170.668 l
 h
155.152 178.426 m 162.91 178.426 l 162.91 170.668 l 155.152 170.668 l h
170.668 178.426 m 178.426 178.426 l 178.426 170.668 l 170.668 170.668 l
 h
178.426 178.426 m 186.184 178.426 l 186.184 170.668 l 178.426 170.668 l
 h
186.184 178.426 m 193.938 178.426 l 193.938 170.668 l 186.184 170.668 l
 h
193.938 178.426 m 201.695 178.426 l 201.695 170.668 l 193.938 170.668 l
 h
201.695 178.426 m 209.453 178.426 l 209.453 170.668 l 201.695 170.668 l
 h
209.453 178.426 m 217.211 178.426 l 217.211 170.668 l 209.453 170.668 l
 h
217.211 178.426 m 224.969 178.426 l 224.969 170.668 l 217.211 170.668 l
 h
93.09 170.668 m 100.848 170.668 l 100.848 162.91 l 93.09 162.91 l h
100.848 170.668 m 108.605 170.668 l 108.605 162.91 l 100.848 162.91 l h
108.605 170.668 m 116.363 170.668 l 116.363 162.91 l 108.605 162.91 l h
116.363 170.668 m 124.121 170.668 l 124.121 162.91 l 116.363 162.91 l h
124.121 170.668 m 131.879 170.668 l 131.879 162.91 l 124.121 162.91 l h
139.637 170.668 m 147.395 170.668 l 147.395 162.91 l 139.637 162.91 l h
31.031 162.91 m 38.789 162.91 l 38.789 155.152 l 31.031 155.152 l h
46.547 162.91 m 54.305 162.91 l 54.305 155.152 l 46.547 155.152 l h
54.305 162.91 m 62.063 162.91 l 62.063 155.152 l 54.305 155.152 l h
62.063 162.91 m 69.816 162.91 l 69.816 155.152 l 62.063 155.152 l h
69.816 162.91 m 77.574 162.91 l 77.574 155.152 l 69.816 155.152 l h
77.574 162.91 m 85.332 162.91 l 85.332 155.152 l 77.574 155.152 l h
124.121 162.91 m 131.879 162.91 l 131.879 155.152 l 124.121 155.152 l h
131.879 162.91 m 139.637 162.91 l 139.637 155.152 l 131.879 155.152 l h
139.637 162.91 m 147.395 162.91 l 147.395 155.152 l 139.637 155.152 l h
147.395 162.91 m 155.152 162.91 l 155.152 155.152 l 147.395 155.152 l h
155.152 162.91 m 162.91 162.91 l 162.91 155.152 l 155.152 155.152 l h
170.668 162.91 m 178.426 162.91 l 178.426 155.152 l 170.668 155.152 l h
178.426 162.91 m 186.184 162.91 l 186.184 155.152 l 178.426 155.152 l h
186.184 162.91 m 193.938 162.91 l 193.938 155.152 l 186.184 155.152 l h
193.938 162.91 m 201.695 162.91 l 201.695 155.152 l 193.938 155.152 l h
201.695 162.91 m 209.453 162.91 l 209.453 155.152 l 201.695 155.152 l h
31.031 155.152 m 38.789 155.152 l 38.789 147.395 l 31.031 147.395 l h
38.789 155.152 m 46.547 155.152 l 46.547 147.395 l 38.789 147.395 l h
46.547 155.152 m 54.305 155.152 l 54.305 147.395 l 46.547 147.395 l h
54.305 155.152 m 62.063 155.152 l 62.063 147.395 l 54.305 147.395 l h
93.09 155.152 m 100.848 155.152 l 100.848 147.395 l 93.09 147.395 l h
100.848 155.152 m 108.605 155.152 l 108.605 147.395 l 100.848 147.395 l
 h
116.363 155.152 m 124.121 155.152 l 124.121 147.395 l 116.363 147.395 l
 h
131.879 155.152 m 139.637 155.152 l 139.637 147.395 l 131.879 147.395 l
 h
155.152 155.152 m 162.91 155.152 l 162.91 147.395 l 155.152 147.395 l h
178.426 155.152 m 186.184 155.152 l 186.184 147.395 l 178.426 147.395 l
 h
209.453 155.152 m 217.211 155.152 l 217.211 147.395 l 209.453 147.395 l
 h
31.031 147.395 m 38.789 147.395 l 38.789 139.637 l 31.031 139.637 l h
77.574 147.395 m 85.332 147.395 l 85.332 139.637 l 77.574 139.637 l h
93.09 147.395 m 100.848 147.395 l 100.848 139.637 l 93.09 139.637 l h
108.605 147.395 m 116.363 147.395 l 116.363 139.637 l 108.605 139.637 l
 h
116.363 147.395 m 124.121 147.395 l 124.121 139.637 l 116.363 139.637 l
 h
131.879 147.395 m 139.637 147.395 l 139.637 139.637 l 131.879 139.637 l
 h
139.637 147.395 m 147.395 147.395 l 147.395 139.637 l 139.637 139.637 l
 h
147.395 147.395 m 155.152 147.395 l 155.152 139.637 l 147.395 139.637 l
 h
155.152 147.395 m 162.91 147.395 l 162.91 139.637 l 155.152 139.637 l h
186.184 147.395 m 193.938 147.395 l 193.938 139.637 l 186.184 139.637 l
 h
193.938 147.395 m 201.695 147.395 l 201.695 139.637 l 193.938 139.637 l
 h
209.453 147.395 m 217.211 147.395 l 217.211 139.637 l 209.453 139.637 l
 h
217.211 147.395 m 224.969 147.395 l 224.969 139.637 l 217.211 139.637 l
 h
31.031 139.637 m 38.789 139.637 l 38.789 131.879 l 31.031 131.879 l h
54.305 139.637 m 62.063 139.637 l 62.063 131.879 l 54.305 131.879 l h
85.332 139.637 m 93.09 139.637 l 93.09 131.879 l 85.332 131.879 l h
100.848 139.637 m 108.605 139.637 l 108.605 131.879 l 100.848 131.879 l
 h
116.363 139.637 m 124.121 139.637 l 124.121 131.879 l 116.363 131.879 l
 h
124.121 139.637 m 131.879 139.637 l 131.879 131.879 l 124.121 131.879 l
 h
139.637 139.637 m 147.395 139.637 l 147.395 131.879 l 139.637 131.879 l
 h
155.152 139.637 m 162.91 139.637 l 162.91 131.879 l 155.152 131.879 l h
170.668 139.637 m 178.426 139.637 l 178.426 131.879 l 170.668 131.879 l
 h
186.184 139.637 m 193.938 139.637 l 193.938 131.879 l 186.184 131.879 l
 h
217.211 139.637 m 224.969 139.637 l 224.969 131.879 l 217.211 131.879 l
 h
54.305 131.879 m 62.063 131.879 l 62.063 124.121 l 54.305 124.121 l h
62.063 131.879 m 69.816 131.879 l 69.816 124.121 l 62.063 124.121 l h
77.574 131.879 m 85.332 131.879 l 85.332 124.121 l 77.574 124.121 l h
85.332 131.879 m 93.09 131.879 l 93.09 124.121 l 85.332 124.121 l h
93.09 131.879 m 100.848 131.879 l 100.848 124.121 l 93.09 124.121 l h
108.605 131.879 m 116.363 131.879 l 116.363 124.121 l 108.605 124.121 l
 h
116.363 131.879 m 124.121 131.879 l 124.121 124.121 l 116.363 124.121 l
 h
124.121 131.879 m 131.879 131.879 l 131.879 124.121 l 124.121 124.121 l
 h
131.879 131.879 m 139.637 131.879 l 139.637 124.121 l 131.879 124.121 l
 h
139.637 131.879 m 147.395 131.879 l 147.395 124.121 l 139.637 124.121 l
 h
170.668 131.879 m 178.426 131.879 l 178.426 124.121 l 170.668 124.121 l
 h
178.426 131.879 m 186.184 131.879 l 186.184 124.121 l 178.426 124.121 l
 h
186.184 131.879 m 193.938 131.879 l 193.938 124.121 l 186.184 124.121 l
 h
201.695 131.879 m 209.453 131.879 l 209.453 124.121 l 201.695 124.121 l
 h
209.453 131.879 m 217.211 131.879 l 217.211 124.121 l 209.453 124.121 l
 h
217.211 131.879 m 224.969 131.879 l 224.969 124.121 l 217.211 124.121 l
 h
31.031 124.121 m 38.789 124.121 l 38.789 116.363 l 31.031 116.363 l h
38.789 124.121 m 46.547 124.121 l 46.547 116.363 l 38.789 116.363 l h
46.547 124.121 m 54.305 124.121 l 54.305 116.363 l 46.547 116.363 l h
54.305 124.121 m 62.063 124.121 l 62.063 116.363 l 54.305 116.363 l h
69.816 124.121 m 77.574 124.121 l 77.574 116.363 l 69.816 116.363 l h
93.09 124.121 m 100.848 124.121 l 100.848 116.363 l 93.09 116.363 l h
108.605 124.121 m 116.363 124.121 l 116.363 116.363 l 108.605 116.363 l
 h
131.879 124.121 m 139.637 124.121 l 139.637 116.363 l 131.879 116.363 l
 h
155.152 124.121 m 162.91 124.121 l 162.91 116.363 l 155.152 116.363 l h
178.426 124.121 m 186.184 124.121 l 186.184 116.363 l 178.426 116.363 l
 h
193.938 124.121 m 201.695 124.121 l 201.695 116.363 l 193.938 116.363 l
 h
209.453 124.121 m 217.211 124.121 l 217.211 116.363 l 209.453 116.363 l
 h
31.031 116.363 m 38.789 116.363 l 38.789 108.605 l 31.031 108.605 l h
46.547 116.363 m 54.305 116.363 l 54.305 108.605 l 46.547 108.605 l h
54.305 116.363 m 62.063 116.363 l 62.063 108.605 l 54.305 108.605 l h
62.063 116.363 m 69.816 116.363 l 69.816 108.605 l 62.063 108.605 l h
77.574 116.363 m 85.332 116.363 l 85.332 108.605 l 77.574 108.605 l h
85.332 116.363 m 93.09 116.363 l 93.09 108.605 l 85.332 108.605 l h
93.09 116.363 m 100.848 116.363 l 100.848 108.605 l 93.09 108.605 l h
116.363 116.363 m 124.121 116.363 l 124.121 108.605 l 116.363 108.605 l
 h
124.121 116.363 m 131.879 116.363 l 131.879 108.605 l 124.121 108.605 l
 h
139.637 116.363 m 147.395 116.363 l 147.395 108.605 l 139.637 108.605 l
 h
147.395 116.363 m 155.152 116.363 l 155.152 108.605 l 147.395 108.605 l
 h
162.91 116.363 m 170.668 116.363 l 170.668 108.605 l 162.91 108.605 l h
178.426 116.363 m 186.184 116.363 l 186.184 108.605 l 178.426 108.605 l
 h
186.184 116.363 m 193.938 116.363 l 193.938 108.605 l 186.184 108.605 l
 h
193.938 116.363 m 201.695 116.363 l 201.695 108.605 l 193.938 108.605 l
 h
209.453 116.363 m 217.211 116.363 l 217.211 108.605 l 209.453 108.605 l
 h
217.211 116.363 m 224.969 116.363 l 224.969 108.605 l 217.211 108.605 l
 h
31.031 108.605 m 38.789 108.605 l 38.789 100.848 l 31.031 100.848 l h
46.547 108.605 m 54.305 108.605 l 54.305 100.848 l 46.547 100.848 l h
62.063 108.605 m 69.816 108.605 l 69.816 100.848 l 62.063 100.848 l h
69.816 108.605 m 77.574 108.605 l 77.574 100.848 l 69.816 100.848 l h
85.332 108.605 m 93.09 108.605 l 93.09 100.848 l 85.332 100.848 l h
93.09 108.605 m 100.848 108.605 l 100.848 100.848 l 93.09 100.848 l h
116.363 108.605 m 124.121 108.605 l 124.121 100.848 l 116.363 100.848 l
 h
139.637 108.605 m 147.395 108.605 l 147.395 100.848 l 139.637 100.848 l
 h
147.395 108.605 m 155.152 108.605 l 155.152 100.848 l 147.395 100.848 l
 h
178.426 108.605 m 186.184 108.605 l 186.184 100.848 l 178.426 100.848 l
 h
186.184 108.605 m 193.938 108.605 l 193.938 100.848 l 186.184 100.848 l
 h
217.211 108.605 m 224.969 108.605 l 224.969 100.848 l 217.211 100.848 l
 h
31.031 100.848 m 38.789 100.848 l 38.789 93.09 l 31.031 93.09 l h
46.547 100.848 m 54.305 100.848 l 54.305 93.09 l 46.547 93.09 l h
54.305 100.848 m 62.063 100.848 l 62.063 93.09 l 54.305 93.09 l h
69.816 100.848 m 77.574 100.848 l 77.574 93.09 l 69.816 93.09 l h
77.574 100.848 m 85.332 100.848 l 85.332 93.09 l 77.574 93.09 l h
93.09 100.848 m 100.848 100.848 l 100.848 93.09 l 93.09 93.09 l h
100.848 100.848 m 108.605 100.848 l 108.605 93.09 l 100.848 93.09 l h
108.605 100.848 m 116.363 100.848 l 116.363 93.09 l 108.605 93.09 l h
116.363 100.848 m 124.121 100.848 l 124.121 93.09 l 116.363 93.09 l h
147.395 100.848 m 155.152 100.848 l 155.152 93.09 l 147.395 93.09 l h
155.152 100.848 m 162.91 100.848 l 162.91 93.09 l 155.152 93.09 l h
162.91 100.848 m 170.668 100.848 l 170.668 93.09 l 162.91 93.09 l h
170.668 100.848 m 178.426 100.848 l 178.426 93.09 l 170.668 93.09 l h
178.426 100.848 m 186.184 100.848 l 186.184 93.09 l 178.426 93.09 l h
186.184 100.848 m 193.938 100.848 l 193.938 93.09 l 186.184 93.09 l h
201.695 100.848 m 209.453 100.848 l 209.453 93.09 l 201.695 93.09 l h
93.09 93.09 m 100.848 93.09 l 100.848 85.332 l 93.09 85.332 l h
100.848 93.09 m 108.605 93.09 l 108.605 85.332 l 100.848 85.332 l h
108.605 93.09 m 116.363 93.09 l 116.363 85.332 l 108.605 85.332 l h
124.121 93.09 m 131.879 93.09 l 131.879 85.332 l 124.121 85.332 l h
131.879 93.09 m 139.637 93.09 l 139.637 85.332 l 131.879 85.332 l h
155.152 93.09 m 162.91 93.09 l 162.91 85.332 l 155.152 85.332 l h
186.184 93.09 m 193.938 93.09 l 193.938 85.332 l 186.184 85.332 l h
193.938 93.09 m 201.695 93.09 l 201.695 85.332 l 193.938 85.332 l h
31.031 85.332 m 38.789 85.332 l 38.789 77.574 l 31.031 77.574 l h
38.789 85.332 m 46.547 85.332 l 46.547 77.574 l 38.789 77.574 l h
46.547 85.332 m 54.305 85.332 l 54.305 77.574 l 46.547 77.574 l h
54.305 85.332 m 62.063 85.332 l 62.063 77.574 l 54.305 77.574 l h
62.063 85.332 m 69.816 85.332 l 69.816 77.574 l 62.063 77.574 l h
69.816 85.332 m 77.574 85.332 l 77.574 77.574 l 69.816 77.574 l h
77.574 85.332 m 85.332 85.332 l 85.332 77.574 l 77.574 77.574 l h
100.848 85.332 m 108.605 85.332 l 108.605 77.574 l 100.848 77.574 l h
108.605 85.332 m 116.363 85.332 l 116.363 77.574 l 108.605 77.574 l h
131.879 85.332 m 139.637 85.332 l 139.637 77.574 l 131.879 77.574 l h
139.637 85.332 m 147.395 85.332 l 147.395 77.574 l 139.637 77.574 l h
155.152 85.332 m 162.91 85.332 l 162.91 77.574 l 155.152 77.574 l h
170.668 85.332 m 178.426 85.332 l 178.426 77.574 l 170.668 77.574 l h
186.184 85.332 m 193.938 85.332 l 193.938 77.574 l 186.184 77.574 l h
201.695 85.332 m 209.453 85.332 l 209.453 77.574 l 201.695 77.574 l h
209.453 85.332 m 217.211 85.332 l 217.211 77.574 l 209.453 77.574 l h
217.211 85.332 m 224.969 85.332 l 224.969 77.574 l 217.211 77.574 l h
31.031 77.574 m 38.789 77.574 l 38.789 69.816 l 31.031 69.816 l h
77.574 77.574 m 85.332 77.574 l 85.332 69.816 l 77.574 69.816 l h
93.09 77.574 m 100.848 77.574 l 100.848 69.816 l 93.09 69.816 l h
108.605 77.574 m 116.363 77.574 l 116.363 69.816 l 108.605 69.816 l h
124.121 77.574 m 131.879 77.574 l 131.879 69.816 l 124.121 69.816 l h
131.879 77.574 m 139.637 77.574 l 139.637 69.816 l 131.879 69.816 l h
155.152 77.574 m 162.91 77.574 l 162.91 69.816 l 155.152 69.816 l h
186.184 77.574 m 193.938 77.574 l 193.938 69.816 l 186.184 69.816 l h
193.938 77.574 m 201.695 77.574 l 201.695 69.816 l 193.938 69.816 l h
209.453 77.574 m 217.211 77.574 l 217.211 69.816 l 209.453 69.816 l h
217.211 77.574 m 224.969 77.574 l 224.969 69.816 l 217.211 69.816 l h
31.031 69.816 m 38.789 69.816 l 38.789 62.063 l 31.031 62.063 l h
46.547 69.816 m 54.305 69.816 l 54.305 62.063 l 46.547 62.063 l h
54.305 69.816 m 62.063 69.816 l 62.063 62.063 l 54.305 62.063 l h
62.063 69.816 m 69.816 69.816 l 69.816 62.063 l 62.063 62.063 l h
77.574 69.816 m 85.332 69.816 l 85.332 62.063 l 77.574 62.063 l h
93.09 69.816 m 100.848 69.816 l 100.848 62.063 l 93.09 62.063 l h
124.121 69.816 m 131.879 69.816 l 131.879 62.063 l 124.121 62.063 l h
139.637 69.816 m 147.395 69.816 l 147.395 62.063 l 139.637 62.063 l h
147.395 69.816 m 155.152 69.816 l 155.152 62.063 l 147.395 62.063 l h
155.152 69.816 m 162.91 69.816 l 162.91 62.063 l 155.152 62.063 l h
162.91 69.816 m 170.668 69.816 l 170.668 62.063 l 162.91 62.063 l h
170.668 69.816 m 178.426 69.816 l 178.426 62.063 l 170.668 62.063 l h
178.426 69.816 m 186.184 69.816 l 186.184 62.063 l 178.426 62.063 l h
186.184 69.816 m 193.938 69.816 l 193.938 62.063 l 186.184 62.063 l h
201.695 69.816 m 209.453 69.816 l 209.453 62.063 l 201.695 62.063 l h
209.453 69.816 m 217.211 69.816 l 217.211 62.063 l 209.453 62.063 l h
217.211 69.816 m 224.969 69.816 l 224.969 62.063 l 217.211 62.063 l h
31.031 62.063 m 38.789 62.063 l 38.789 54.305 l 31.031 54.305 l h
46.547 62.063 m 54.305 62.063 l 54.305 54.305 l 46.547 54.305 l h
54.305 62.063 m 62.063 62.063 l 62.063 54.305 l 54.305 54.305 l h
62.063 62.063 m 69.816 62.063 l 69.816 54.305 l 62.063 54.305 l h
77.574 62.063 m 85.332 62.063 l 85.332 54.305 l 77.574 54.305 l h
93.09 62.063 m 100.848 62.063 l 100.848 54.305 l 93.09 54.305 l h
100.848 62.063 m 108.605 62.063 l 108.605 54.305 l 100.848 54.305 l h
155.152 62.063 m 162.91 62.063 l 162.91 54.305 l 155.152 54.305 l h
162.91 62.063 m 170.668 62.063 l 170.668 54.305 l 162.91 54.305 l h
170.668 62.063 m 178.426 62.063 l 178.426 54.305 l 170.668 54.305 l h
186.184 62.063 m 193.938 62.063 l 193.938 54.305 l 186.184 54.305 l h
193.938 62.063 m 201.695 62.063 l 201.695 54.305 l 193.938 54.305 l h
201.695 62.063 m 209.453 62.063 l 209.453 54.305 l 201.695 54.305 l h
209.453 62.063 m 217.211 62.063 l 217.211 54.305 l 209.453 54.305 l h
217.211 62.063 m 224.969 62.063 l 224.969 54.305 l 217.211 54.305 l h
31.031 54.305 m 38.789 54.305 l 38.789 46.547 l 31.031 46.547 l h
46.547 54.305 m 54.305 54.305 l 54.305 46.547 l 46.547 46.547 l h
54.305 54.305 m 62.063 54.305 l 62.063 46.547 l 54.305 46.547 l h
62.063 54.305 m 69.816 54.305 l 69.816 46.547 l 62.063 46.547 l h
77.574 54.305 m 85.332 54.305 l 85.332 46.547 l 77.574 46.547 l h
93.09 54.305 m 100.848 54.305 l 100.848 46.547 l 93.09 46.547 l h
108.605 54.305 m 116.363 54.305 l 116.363 46.547 l 108.605 46.547 l h
116.363 54.305 m 124.121 54.305 l 124.121 46.547 l 116.363 46.547 l h
124.121 54.305 m 131.879 54.305 l 131.879 46.547 l 124.121 46.547 l h
147.395 54.305 m 155.152 54.305 l 155.152 46.547 l 147.395 46.547 l h
193.938 54.305 m 201.695 54.305 l 201.695 46.547 l 193.938 46.547 l h
201.695 54.305 m 209.453 54.305 l 209.453 46.547 l 201.695 46.547 l h
217.211 54.305 m 224.969 54.305 l 224.969 46.547 l 217.211 46.547 l h
31.031 46.547 m 38.789 46.547 l 38.789 38.789 l 31.031 38.789 l h
77.574 46.547 m 85.332 46.547 l 85.332 38.789 l 77.574 38.789 l h
108.605 46.547 m 116.363 46.547 l 116.363 38.789 l 108.605 38.789 l h
116.363 46.547 m 124.121 46.547 l 124.121 38.789 l 116.363 38.789 l h
139.637 46.547 m 147.395 46.547 l 147.395 38.789 l 139.637 38.789 l h
155.152 46.547 m 162.91 46.547 l 162.91 38.789 l 155.152 38.789 l h
170.668 46.547 m 178.426 46.547 l 178.426 38.789 l 170.668 38.789 l h
178.426 46.547 m 186.184 46.547 l 186.184 38.789 l 178.426 38.789 l h
186.184 46.547 m 193.938 46.547 l 193.938 38.789 l 186.184 38.789 l h
193.938 46.547 m 201.695 46.547 l 201.695 38.789 l 193.938 38.789 l h
217.211 46.547 m 224.969 46.547 l 224.969 38.789 l 217.211 38.789 l h
31.031 38.789 m 38.789 38.789 l 38.789 31.031 l 31.031 31.031 l h
38.789 38.789 m 46.547 38.789 l 46.547 31.031 l 38.789 31.031 l h
46.547 38.789 m 54.305 38.789 l 54.305 31.031 l 46.547 31.031 l h
54.305 38.789 m 62.063 38.789 l 62.063 31.031 l 54.305 31.031 l h
62.063 38.789 m 69.816 38.789 l 69.816 31.031 l 62.063 31.031 l h
69.816 38.789 m 77.574 38.789 l 77.574 31.031 l 69.816 31.031 l h
77.574 38.789 m 85.332 38.789 l 85.332 31.031 l 77.574 31.031 l h
93.09 38.789 m 100.848 38.789 l 100.848 31.031 l 93.09 31.031 l h
116.363 38.789 m 124.121 38.789 l 124.121 31.031 l 116.363 31.031 l h
162.91 38.789 m 170.668 38.789 l 170.668 31.031 l 162.91 31.031 l h
170.668 38.789 m 178.426 38.789 l 178.426 31.031 l 170.668 31.031 l h
178.426 38.789 m 186.184 38.789 l 186.184 31.031 l 178.426 31.031 l h
186.184 38.789 m 193.938 38.789 l 193.938 31.031 l 186.184 31.031 l h
193.938 38.789 m 201.695 38.789 l 201.695 31.031 l 193.938 31.031 l h
201.695 38.789 m 209.453 38.789 l 209.453 31.031 l 201.695 31.031 l h
209.453 38.789 m 217.211 38.789 l 217.211 31.031 l 209.453 31.031 l h
217.211 38.789 m 224.969 38.789 l 224.969 31.031 l 217.211 31.031 l h
217.211 38.789 m f
Q Q
showpage
%%Trailer
end restore
%%EOF
